{
  "data": {
    "id": "000000004565",
    "business": {
      "id": "00023456",
      "legalName": "INVERTEC AEMSA SAC",
      "businessDocuments": [
        {
          "businessDocumentType": {
            "id": "R",
            "name": "Registro Único del Contribuyente"
          },
          "documentNumber": "20514330175"
        }
      ],
      "businessManagement": {
        "managementType": {
          "id": "C",
          "description": "Joint description"
        }
      }
    },
    "product": {
      "id": "E",
      "name": "Net Cash for business"
    },
    "joint": {
      "id": "2",
      "name": "Two signatures are required"
    },
    "limitAmount": {
      "amount": 12345.99,
      "currency": "PEN"
    },
    "relatedContracts": [
      {
        "contract": {
          "id": "012344550453050"
        },
        "product": {
          "id": "P2345",
          "name": "Cuenta corriente",
          "productType": {
            "id": "A",
            "name": "Account type"
          }
        },
        "relationType": {
          "id": "C",
          "name": "cuenta de pago"
        }
      }
    ],
    "status": {
      "id": "4",
      "name": "Aprobado",
      "reason": "1",
      "updateDate": "2018-11-05"
    },
    "openingDate": "2015-12-02",
    "branch": {
      "id": "123",
      "name": "Oficina 4"
    },
    "unitManagement": "123",
    "participants": [
      {
        "code": "P023875",
        "firstName": "Luis",
        "middleName": "Alberto",
        "lastName": "Ramos",
        "motherLastName": "Paredes",
        "contactInformations": [
          {
            "id": "MA",
            "contact": "lramosp@gmail.com"
          }
        ],
        "participantType": {
          "id": "E",
          "name": "Ejecutivo"
        }
      },
      {
        "code": "P023800",
        "firstName": "Mario",
        "lastName": "Paredes",
        "motherLastName": "Machuca",
        "contactInformations": [
          {
            "id": "MA",
            "contact": "mparedesm@gmail.com"
          }
        ],
        "participantType": {
          "id": "E",
          "name": "Ejecutivo"
        }
      }
    ],
    "businessManagers": [
      {
        "userId": "0001",
        "userIdHost": "0026008101000770ADMIN001",
        "firstName": "Alex",
        "middleName": "Jose",
        "lastName": "Diaz",
        "motherLastName": "Quispe",
        "identityDocuments": [
          {
            "documentType": {
              "id": "L",
              "name": "Documento nacional de identidad"
            },
            "documentNumber": "07456798"
          }
        ],
        "contactInformations": [
          {
            "id": "MA",
            "contact": "alex.diaz@gmail.com"
          }
        ],
        "roles": [
          {
            "id": "LEGAL_REPRESENTATIVE"
          }
        ]
      }
    ]
  }
}